[{
    "hiragana": "あ",
    "roumaji": "a",
  },
  {
    "hiragana": "い",
    "roumaji": "i",
  },
  {
    "hiragana": "う",
    "roumaji": "u",
  },
  {
    "hiragana": "え",
    "roumaji": "e",
  },
  {
    "hiragana": "お",
    "roumaji": "o",
  },
  {
    "hiragana": "か",
    "roumaji": "ka",
  },
  {
    "hiragana": "き",
    "roumaji": "ki",
  },
  {
    "hiragana": "く",
    "roumaji": "ku",
  },
  {
    "hiragana": "け",
    "roumaji": "ke",
  },
  {
    "hiragana": "こ",
    "roumaji": "ko",
  },
  {
    "hiragana": "さ",
    "roumaji": "sa",
  },
  {
    "hiragana": "し",
    "roumaji": "shi",
  },
  {
    "hiragana": "す",
    "roumaji": "su",
  },
  {
    "hiragana": "せ",
    "roumaji": "se",
  },
  {
    "hiragana": "そ",
    "roumaji": "so",
  },
  {
    "hiragana": "た",
    "roumaji": "ta",
  },
  {
    "hiragana": "ち",
    "roumaji": "ti",
  },
  {
    "hiragana": "つ",
    "roumaji": "tu",
  },
  {
    "hiragana": "て",
    "roumaji": "te",
  },
  {
    "hiragana": "と",
    "roumaji": "to",
  },
  {
    "hiragana": "な",
    "roumaji": "na",
  },
  {
    "hiragana": "に",
    "roumaji": "ni",
  },
  {
    "hiragana": "ぬ",
    "roumaji": "nu",
  },
  {
    "hiragana": "ね",
    "roumaji": "ne",
  },
  {
    "hiragana": "の",
    "roumaji": "no",
  },
  {
    "hiragana": "は",
    "roumaji": "ha",
  },
  {
    "hiragana": "ひ",
    "roumaji": "hi",
  },
  {
    "hiragana": "ふ",
    "roumaji": "hu",
  },
  {
    "hiragana": "へ",
    "roumaji": "he",
  },
  {
    "hiragana": "ほ",
    "roumaji": "ho",
  },
  {
    "hiragana": "ま",
    "roumaji": "ma",
  },
  {
    "hiragana": "み",
    "roumaji": "mi",
  },
  {
    "hiragana": "む",
    "roumaji": "mu",
  },
  {
    "hiragana": "め",
    "roumaji": "me",
  },
  {
    "hiragana": "も",
    "roumaji": "mo",
  },
  {
    "hiragana": "や",
    "roumaji": "ya",
  },
  {
    "hiragana": "ゆ",
    "roumaji": "yu",
  },
  {
    "hiragana": "よ",
    "roumaji": "yo",
  },
  {
    "hiragana": "ら",
    "roumaji": "ra",
  },
  {
    "hiragana": "り",
    "roumaji": "ri",
  },
  {
    "hiragana": "る",
    "roumaji": "ru",
  },
  {
    "hiragana": "れ",
    "roumaji": "re",
  },
  {
    "hiragana": "ろ",
    "roumaji": "ro",
  },
  {
    "hiragana": "わ",
    "roumaji": "wa",
  },
  {
    "hiragana": "を",
    "roumaji": "wo",
  },
  {
    "hiragana": "ん",
    "roumaji": "n",
  },
  {
    "hiragana": "が",
    "roumaji": "ga",
  },
  {
    "hiragana": "ぎ",
    "roumaji": "gi",
  },
  {
    "hiragana": "ぐ",
    "roumaji": "gu",
  },
  {
    "hiragana": "げ",
    "roumaji": "ge",
  },
  {
    "hiragana": "ご",
    "roumaji": "go",
  },
  {
    "hiragana": "ざ",
    "roumaji": "za",
  },
  {
    "hiragana": "じ",
    "roumaji": "ji",
  },
  {
    "hiragana": "ず",
    "roumaji": "zu",
  },
  {
    "hiragana": "ぜ",
    "roumaji": "ze",
  },
  {
    "hiragana": "ぞ",
    "roumaji": "zo",
  },
  {
    "hiragana": "だ",
    "roumaji": "da",
  },
  {
    "hiragana": "ぢ",
    "roumaji": "ji",
  },
  {
    "hiragana": "づ",
    "roumaji": "zu",
  },
  {
    "hiragana": "で",
    "roumaji": "de",
  },
  {
    "hiragana": "ど",
    "roumaji": "do",
  },
  {
    "hiragana": "ば",
    "roumaji": "ba",
  },
  {
    "hiragana": "び",
    "roumaji": "bi",
  },
  {
    "hiragana": "ぶ",
    "roumaji": "bu",
  },
  {
    "hiragana": "べ",
    "roumaji": "be",
  },
  {
    "hiragana": "ぼ",
    "roumaji": "bo",
  },
  {
    "hiragana": "ぱ",
    "roumaji": "pa",
  },
  {
    "hiragana": "ぴ",
    "roumaji": "pi",
  },
  {
    "hiragana": "ぷ",
    "roumaji": "pu",
  },
  {
    "hiragana": "ぺ",
    "roumaji": "pe",
  },
  {
    "hiragana": "ぽ",
    "roumaji": "po",
  },
  {
    "hiragana": "きゃ",
    "roumaji": "kya",
  },
  {
    "hiragana": "きゅ",
    "roumaji": "kyu",
  },
  {
    "hiragana": "きょ",
    "roumaji": "kyo",
  },
  {
    "hiragana": "しゃ",
    "roumaji": "sha",
  },
  {
    "hiragana": "しゅ",
    "roumaji": "shu",
  },
  {
    "hiragana": "しょ",
    "roumaji": "sho",
  },
  {
    "hiragana": "ちゃ",
    "roumaji": "cha",
  },
  {
    "hiragana": "ちゅ",
    "roumaji": "chu",
  },
  {
    "hiragana": "ちょ",
    "roumaji": "cho",
  },
  {
    "hiragana": "にゃ",
    "roumaji": "nya",
  },
  {
    "hiragana": "にゅ",
    "roumaji": "nyu",
  },
  {
    "hiragana": "にょ",
    "roumaji": "nyo",
  },
  {
    "hiragana": "ひゃ",
    "roumaji": "hya",
  },
  {
    "hiragana": "ひゅ",
    "roumaji": "hyu",
  },
  {
    "hiragana": "ひょ",
    "roumaji": "hyo",
  },
  {
    "hiragana": "みゃ",
    "roumaji": "mya",
  },
  {
    "hiragana": "みゅ",
    "roumaji": "myu",
  },
  {
    "hiragana": "みょ",
    "roumaji": "myo",
  },
  {
    "hiragana": "りゃ",
    "roumaji": "rya",
  },
  {
    "hiragana": "りゅ",
    "roumaji": "ryu",
  },
  {
    "hiragana": "りょ",
    "roumaji": "ryo",
  },
  {
    "hiragana": "ぎゃ",
    "roumaji": "gya",
  },
  {
    "hiragana": "ぎゅ",
    "roumaji": "gyu",
  },
  {
    "hiragana": "ぎょ",
    "roumaji": "gyo",
  },
  {
    "hiragana": "ぢゃ",
    "roumaji": "ja",
  },
  {
    "hiragana": "ぢゅ",
    "roumaji": "ju",
  },
  {
    "hiragana": "ぢょ",
    "roumaji": "jo",
  },
  {
    "hiragana": "びゃ",
    "roumaji": "bya",
  },
  {
    "hiragana": "びゅ",
    "roumaji": "byu",
  },
  {
    "hiragana": "にょ",
    "roumaji": "byo",
  },
  {
    "hiragana": "ぴゃ",
    "roumaji": "pya",
  },
  {
    "hiragana": "ぴゅ",
    "roumaji": "pyu",
  },
  {
    "hiragana": "ぴょ",
    "roumaji": "pyo",
  }
]
